BG1		AP342	8001PT		DiabetesII	4	true	623.45 
BG2		A1215	80024KM		Cancer123 	10	true	1443.76
GG1		A002	30027PG		Cardio523	3	false	455.55
LXT1 	A8765	70278BYK	DiabetesII	5	false	785.35
LX43 	AD123	8001PT		Cardio376	9	false	812.22
LXT1  	AP342	80024KM		Cancer123	23	true	3808.3
BG2		A176	80024KM		Cancer123 	2	true	444.20

